<svg xmlns="http://www.w3.org/2000/svg" width="1920" height="59.676" viewBox="0 0 1920 59.676">
  <path id="Trazado_1" data-name="Trazado 1" d="M1920,185,0,141.4v-15.81l1920-.268Z" transform="translate(0 -125.324)" fill="#ffad41"/>
</svg>
